module gitlab.com/lercher/temporal-sqls

go 1.18

require (
	github.com/denisenkom/go-mssqldb v0.12.0
	github.com/iancoleman/strcase v0.2.0
	github.com/jmoiron/sqlx v1.3.5
	github.com/pkg/errors v0.9.1
	github.com/stretchr/testify v1.7.1
	github.com/temporalio/tctl v1.16.1
	github.com/urfave/cli/v2 v2.5.1
	go.temporal.io/api v1.7.1-0.20220326004856-88a7c92fb8b4
	go.temporal.io/sdk v1.14.1-0.20220322131744-55cf584de5c7
	go.temporal.io/server v1.16.1
)

require (
	cloud.google.com/go v0.100.2 // indirect
	cloud.google.com/go/compute v1.5.0 // indirect
	cloud.google.com/go/iam v0.3.0 // indirect
	cloud.google.com/go/storage v1.22.0 // indirect
	github.com/apache/thrift v0.0.0-20161221203622-b2a4d4ae21c7 // indirect
	github.com/aws/aws-sdk-go v1.43.37 // indirect
	github.com/benbjohnson/clock v1.3.0 // indirect
	github.com/beorn7/perks v1.0.1 // indirect
	github.com/blang/semver/v4 v4.0.0 // indirect
	github.com/cactus/go-statsd-client/statsd v0.0.0-20200423205355-cb0885a1018c // indirect
	github.com/cespare/xxhash/v2 v2.1.2 // indirect
	github.com/cpuguy83/go-md2man/v2 v2.0.1 // indirect
	github.com/davecgh/go-spew v1.1.1 // indirect
	github.com/dgryski/go-farm v0.0.0-20200201041132-a6ae2369ad13 // indirect
	github.com/dustin/go-humanize v1.0.0 // indirect
	github.com/facebookgo/clock v0.0.0-20150410010913-600d898af40a // indirect
	github.com/fatih/color v1.13.0 // indirect
	github.com/fsnotify/fsnotify v1.5.1 // indirect
	github.com/go-logr/logr v1.2.3 // indirect
	github.com/go-logr/stdr v1.2.2 // indirect
	github.com/go-sql-driver/mysql v1.6.0 // indirect
	github.com/gocql/gocql v1.0.0 // indirect
	github.com/gogo/googleapis v1.4.1 // indirect
	github.com/gogo/protobuf v1.3.2 // indirect
	github.com/gogo/status v1.1.0 // indirect
	github.com/golang-jwt/jwt/v4 v4.4.1 // indirect
	github.com/golang-sql/civil v0.0.0-20190719163853-cb61b32ac6fe // indirect
	github.com/golang-sql/sqlexp v0.0.0-20170517235910-f1bb20e5a188 // indirect
	github.com/golang/groupcache v0.0.0-20210331224755-41bb18bfe9da // indirect
	github.com/golang/mock v1.6.0 // indirect
	github.com/golang/protobuf v1.5.2 // indirect
	github.com/golang/snappy v0.0.4 // indirect
	github.com/google/go-cmp v0.5.7 // indirect
	github.com/google/uuid v1.3.0 // indirect
	github.com/googleapis/gax-go/v2 v2.3.0 // indirect
	github.com/googleapis/go-type-adapters v1.0.0 // indirect
	github.com/gorilla/websocket v1.4.2 // indirect
	github.com/grpc-ecosystem/go-grpc-middleware v1.3.0 // indirect
	github.com/hailocab/go-hostpool v0.0.0-20160125115350-e80d13ce29ed // indirect
	github.com/hashicorp/go-hclog v1.1.0 // indirect
	github.com/hashicorp/go-plugin v1.4.3 // indirect
	github.com/hashicorp/hcl v1.0.0 // indirect
	github.com/hashicorp/yamux v0.0.0-20211028200310-0bc27b27de87 // indirect
	github.com/hokaccha/go-prettyjson v0.0.0-20210113012101-fb4e108d2519 // indirect
	github.com/jmespath/go-jmespath v0.4.0 // indirect
	github.com/jonboulle/clockwork v0.2.3 // indirect
	github.com/josharian/intern v1.0.0 // indirect
	github.com/lib/pq v1.10.5 // indirect
	github.com/magiconair/properties v1.8.5 // indirect
	github.com/mailru/easyjson v0.7.7 // indirect
	github.com/mattn/go-colorable v0.1.12 // indirect
	github.com/mattn/go-isatty v0.0.14 // indirect
	github.com/mattn/go-runewidth v0.0.13 // indirect
	github.com/mattn/go-sqlite3 v1.14.12 // indirect
	github.com/matttproud/golang_protobuf_extensions v1.0.1 // indirect
	github.com/mitchellh/go-testing-interface v1.14.1 // indirect
	github.com/mitchellh/mapstructure v1.4.2 // indirect
	github.com/oklog/run v1.1.0 // indirect
	github.com/olekukonko/tablewriter v0.0.5 // indirect
	github.com/olivere/elastic v6.2.37+incompatible // indirect
	github.com/olivere/elastic/v7 v7.0.32 // indirect
	github.com/opentracing/opentracing-go v1.2.0 // indirect
	github.com/pborman/uuid v1.2.1 // indirect
	github.com/pelletier/go-toml v1.9.4 // indirect
	github.com/pmezard/go-difflib v1.0.0 // indirect
	github.com/prometheus/client_golang v1.12.1 // indirect
	github.com/prometheus/client_model v0.2.0 // indirect
	github.com/prometheus/common v0.33.0 // indirect
	github.com/prometheus/procfs v0.7.3 // indirect
	github.com/rcrowley/go-metrics v0.0.0-20201227073835-cf1acfcdf475 // indirect
	github.com/rivo/uniseg v0.2.0 // indirect
	github.com/robfig/cron v1.2.0 // indirect
	github.com/robfig/cron/v3 v3.0.1 // indirect
	github.com/russross/blackfriday/v2 v2.1.0 // indirect
	github.com/sirupsen/logrus v1.8.1 // indirect
	github.com/spf13/afero v1.6.0 // indirect
	github.com/spf13/cast v1.4.1 // indirect
	github.com/spf13/jwalterweatherman v1.1.0 // indirect
	github.com/spf13/pflag v1.0.5 // indirect
	github.com/spf13/viper v1.9.0 // indirect
	github.com/stretchr/objx v0.3.0 // indirect
	github.com/subosito/gotenv v1.2.0 // indirect
	github.com/temporalio/ringpop-go v0.0.0-20211012191444-6f91b5915e95 // indirect
	github.com/temporalio/tctl-kit v0.0.0-20211220044822-28c2391a9ce4 // indirect
	github.com/twmb/murmur3 v1.1.6 // indirect
	github.com/uber-common/bark v1.3.0 // indirect
	github.com/uber-go/tally/v4 v4.1.1 // indirect
	github.com/uber/tchannel-go v1.22.3 // indirect
	github.com/urfave/cli v1.22.5 // indirect
	github.com/xwb1989/sqlparser v0.0.0-20180606152119-120387863bf2 // indirect
	go.opencensus.io v0.23.0 // indirect
	go.opentelemetry.io/otel v1.6.3 // indirect
	go.opentelemetry.io/otel/exporters/prometheus v0.27.0 // indirect
	go.opentelemetry.io/otel/internal/metric v0.27.0 // indirect
	go.opentelemetry.io/otel/metric v0.27.0 // indirect
	go.opentelemetry.io/otel/sdk v1.6.3 // indirect
	go.opentelemetry.io/otel/sdk/export/metric v0.27.0 // indirect
	go.opentelemetry.io/otel/sdk/metric v0.27.0 // indirect
	go.opentelemetry.io/otel/trace v1.6.3 // indirect
	go.temporal.io/version v0.3.0 // indirect
	go.uber.org/atomic v1.9.0 // indirect
	go.uber.org/dig v1.14.1 // indirect
	go.uber.org/fx v1.17.1 // indirect
	go.uber.org/multierr v1.8.0 // indirect
	go.uber.org/zap v1.21.0 // indirect
	golang.org/x/crypto v0.0.0-20220411220226-7b82a4e95df4 // indirect
	golang.org/x/net v0.0.0-20220412020605-290c469a71a5 // indirect
	golang.org/x/oauth2 v0.0.0-20220411215720-9780585627b5 // indirect
	golang.org/x/sys v0.0.0-20220412211240-33da011f77ad // indirect
	golang.org/x/text v0.3.7 // indirect
	golang.org/x/time v0.0.0-20220411224347-583f2d630306 // indirect
	golang.org/x/xerrors v0.0.0-20220411194840-2f41105eb62f // indirect
	google.golang.org/api v0.74.0 // indirect
	google.golang.org/appengine v1.6.7 // indirect
	google.golang.org/genproto v0.0.0-20220407144326-9054f6ed7bac // indirect
	google.golang.org/grpc v1.45.0 // indirect
	google.golang.org/protobuf v1.28.0 // indirect
	gopkg.in/inf.v0 v0.9.1 // indirect
	gopkg.in/ini.v1 v1.63.2 // indirect
	gopkg.in/square/go-jose.v2 v2.6.0 // indirect
	gopkg.in/validator.v2 v2.0.1 // indirect
	gopkg.in/yaml.v2 v2.4.0 // indirect
	gopkg.in/yaml.v3 v3.0.0-20210107192922-496545a6307b // indirect
)

// replace go.temporal.io/server v1.16.1 => ../../../github.com/temporalio/temporal
